CSS_coursework
…
CSS_coursework

Data Exploration and Contextualization

The dataset under analysis, ‘Vaccine Coverage and Disease Burden Statistics’, provided by the WHO, provides detailed statistics associated with a variety of diseases. The variables cover immunization rates amongst one-year-olds, disease incidence, as well as death rates across the globe’s countries and regions, recorded as values per year. For certain variables and countries, coined ’Entity’s in the dataset, the data reaches as early as 1974, and stretches until 2015. No data crosses this range. Thus, the dataset offers valuable insight into public health, proving helpful for social scientists.

Such a dataset can act as a key resource in research on public health’s interlink with other social factors, such as socioeconomics, psychology, culture, etc. @cohen2006. Advantageously, the dataset provides data on both immunization and incidence of certain diseases which severely impacted society, such as polio and measles. Thus, we are able to examine the correlation between immunization and incidence. Social scientists can further use this to their advantage, by examining changes in such variables and their relation with other social factors. Such research can be fed back into medicinal development, and public health related policies.

The means, standard deviations, and missing values were calculated using their respective functions. They were calculated for each Entity in each variable. However, due to the nature of the data being over a period of time, the insight provided by these statistics is limited. An Entity’s mean for one variable which stretches over a period of years oversimplifies the data, and does not demonstrate the changes in the variable, and thus lacks meaning. Similarly, the standard deviation, measuring dispersion from the mean, does not reveal any patterns occurring over time, thus lacking value in the given research focus.

The number of missing values varied between variables and entities, thus throughout the coding process missing values were always removed, in order not to skew the data.

# A tibble: 201 × 25
   Entity    `mean(...)` `sd(...)` sum(is.na(\BCG immun…¹ sum(is.na(\Hepatitis…²
   <chr>           <dbl>     <dbl>                  <int>                  <int>
 1 Afghanis…   11844.      1207.                        8                     33
 2 Africa     413125      14930.                        0                     16
 3 Albania        13.9        8.75                      0                     14
 4 Algeria      2850        210.                       11                     30
 5 Americas    22875       3810.                        0                     13
 6 Andorra         0.625      0.5                      19                      0
 7 Angola      10144.      1674.                        9                     33
 8 Antigua …       1          0                        42                     27
 9 Argentina     736.        92.3                       6                     28
10 Armenia       204.        57.8                       2                     10
# ℹ 191 more rows
# ℹ abbreviated names:
#   ¹​`sum(is.na(\`BCG immunization coverage among 1-year-olds (WHO 2017)\`))`,
#   ²​`sum(is.na(\`Hepatitis B (HepB3) immunization coverage among 1-year-olds (WHO 2017)\`))`
# ℹ 20 more variables:
#   `sum(is.na(\`DTP3 immunization coverage among 1-year-olds (WHO 2017)\`))` <int>,
#   `sum(is.na(\`Polio (Pol3) immunization coverage among 1-year-olds (WHO 2017)\`))` <int>, …
…
To achieve this, first, a function to calculate range of cases per Entity had to be written. The pre-existing range function in r returns a vector containing maximum and minimum values, however the aim is to find the difference between the maximum and minimum values, thus a new function had to be written.

Below, is the initial function written. While the general structure works, there is an error in code of the function’s argument. By merely making the argument ‘variable’, the input is detected as an object rather than a variable within ds.

entity_range <- function(variable){ #defines a function with an attempt to use variable names as the argument.
  ds %>% #begins data pipeline.
  group_by(Entity) %>% #groups the data by country.
  summarize(range = max(variable, na.rm = TRUE) - min(variable, na.rm = TRUE)) #calculating the range.
}

#calling the function for polio cases
polio_cases_range <- entity_range(ds$polio_cases)
print(polio_cases_range)

# A tibble: 201 × 2
   Entity              range
   <chr>               <dbl>
 1 Afghanistan           461
 2 Africa                461
 3 Albania               461
 4 Algeria               461
 5 Americas              461
 6 Andorra               461
 7 Angola                461
 8 Antigua and Barbuda   461
 9 Argentina             461
10 Armenia               461
# ℹ 191 more rows
Thus, another attempt is made. This function attempts to use indices as the argument, to instruct the function to access columns via their index position. However, this only returns the maximum values for each entity without providing their range in case numbers.

entity_range <- function(i) { #defines a function which access columns via their index position in the dataset
  ds %>%
    group_by(Entity) %>%
    summarize(range = max(ds[[i]], na.rm = TRUE) - min(ds[[i]], na.rm = TRUE))
}

#followed by the below for calling the function

#function applied to polio cases
polio_cases_range <- entity_range(5) #index position of the polio_cases column is 5
print(polio_cases_range)

# A tibble: 201 × 2
   Entity              range
   <chr>               <dbl>
 1 Afghanistan           461
 2 Africa                461
 3 Albania               461
 4 Algeria               461
 5 Americas              461
 6 Andorra               461
 7 Angola                461
 8 Antigua and Barbuda   461
 9 Argentina             461
10 Armenia               461
# ℹ 191 more rows

#function applied to measles cases 
measles_cases_range <- entity_range(6) #index position of the polio_cases column is 6
print(measles_cases_range)

# A tibble: 201 × 2
   Entity                range
   <chr>                 <dbl>
 1 Afghanistan         4430074
 2 Africa              4430074
 3 Albania             4430074
 4 Algeria             4430074
 5 Americas            4430074
 6 Andorra             4430074
 7 Angola              4430074
 8 Antigua and Barbuda 4430074
 9 Argentina           4430074
10 Armenia             4430074
# ℹ 191 more rows
…
The functions accessing variables within the dataset dynamically means it accesses the column under whichever variable name is input as the argument. If it were not dynamic, the function would be locked to one variable. Additionally, this differs from the original code written as it accesses the input as a variable rather than an object.

Once this function was written, it was applied to the necessary columns, as shown below. The argument must be written as a string to be recognized as a column name rather than an object.

#function applied to polio cases variable
polio_cases_range <- entity_range("polio_cases")
print(polio_cases_range)

# A tibble: 201 × 2
   Entity              range
   <chr>               <dbl>
 1 Afghanistan            63
 2 Africa                 42
 3 Albania                 0
 4 Algeria                 0
 5 Americas                0
 6 Andorra                 0
 7 Angola                 33
 8 Antigua and Barbuda     0
 9 Argentina               0
10 Armenia                 0
# ℹ 191 more rows

#function applied to measles cases variable
measles_cases_range <- entity_range("measles_cases")
print(measles_cases_range)

# A tibble: 201 × 2
   Entity                range
   <chr>                 <dbl>
 1 Afghanistan           43972
 2 Africa              1376172
 3 Albania              136034
 4 Algeria               29584
 5 Americas             257705
 6 Andorra                   5
 7 Angola                30038
 8 Antigua and Barbuda    2291
 9 Argentina             42093
10 Armenia                2281
# ℹ 191 more rows
…
